[
	{
		"model": "accounts.MyUser",
		"pk": 2,
		"fields": {
			"email": "john@lennon.com",
			"password": "pbkdf2_sha256$390000$3nicVdEJuVNRq6fj9i1s09$u6LDkrl4ClZOAsdCXdhsRndhLOIyZW+fUudwpxfULzI="
		}
	},
	{
		"model": "accounts.MyUser",
		"pk": 3,
		"fields": {
			"email": "jimmy@page.com",
			"password": "pbkdf2_sha256$390000$SsOjY9pGyGgSJwD6u4gYDp$9zzvA1RcHuPqGO+g1o8kOZFi/K1j56b8ZSMwgQ4fyw4="
		}
	},
	{
		"model": "accounts.MyUser",
		"pk": 4,
		"fields": {
			"email": "brad@pitt.com",
			"password": "pbkdf2_sha256$390000$484lX4HieOeQG6XGiEd9HN$eD3UBTl5HuAyBkCeH1uhZGW8az6sNc++qUmXHcEIo/c="
		}
	},
	{
		"model": "accounts.Profile",
		"pk": 1,
		"fields": {
			"user": 1,
			"nickname": "Stay Gold",
			"family_name": "Stay",
			"given_name": "Gold",
			"gender": "M",
			"birth_year": 1901,
			"birth_month": 1, 
			"birth_date": 1, 
			"country": "JP"
		}
	},
	{
		"model": "accounts.Profile",
		"pk": 2,
		"fields": {
			"user": 2,
			"nickname": "imagin",
			"family_name": "Lennon",
			"given_name": "John",
			"gender": "M",
			"birth_year": 1940, 
			"birth_month": 10, 
			"birth_date": 9, 
			"country": "UK"
		}
	},
	{
		"model": "accounts.Profile",
		"pk": 3,
		"fields": {
			"user": 3,
			"nickname": "zepp",
			"family_name": "Page",
			"given_name": "Jimmy",
			"gender": "M",
			"birth_year": 1944, 
			"birth_month": 1, 
			"birth_date": 9, 
			"country": "UK"
		}
	},
	{
		"model": "accounts.Profile",
		"pk": 4,
		"fields": {
			"user": 4,
			"nickname": "brapi",
			"family_name": "Pitt",
			"given_name": "Brad",
			"gender": "M",
			"birth_year": 1963, 
			"birth_month": 12, 
			"birth_date": 18, 
			"country": "UK"
		}
	}
]
