[
	{
		"model": "drf.MusicCategory",
		"pk": 1,
		"fields": {
			"title": "rock"
		}
	},
	{
		"model": "drf.MusicCategory",
		"pk": 2,
		"fields": {
			"title": "pop"
		}
	},
	{
		"model": "drf.MusicCategory",
		"pk": 3,
		"fields": {
			"title": "classical"
		}
	},
	{
		"model": "drf.MusicItem",
		"pk": 1,
		"fields": {
			"title": "Led Zeppelin IV",
			"category": 1
		}
	},
	{
		"model": "drf.MusicItem",
		"pk": 2,
		"fields": {
			"title": "Purpose",
			"category": 2
		}
	},
	{
		"model": "drf.MusicItem",
		"pk": 3,
		"fields": {
			"title": "Eine Kleine Nachtmusik",
			"category": 3
		}
	},
	{
		"model": "drf.MusicItem",
		"pk": 4,
		"fields": {
			"title": "Thriller",
			"category": 2
		}
	}
]
